<?xml version="1.0" encoding="utf-8"?>
<!-- Generator: Adobe Illustrator 16.0.0, SVG Export Plug-In . SVG Version: 6.00 Build 0)  -->
<!DOCTYPE svg PUBLIC "-//W3C//DTD SVG 1.1//EN" "http://www.w3.org/Graphics/SVG/1.1/DTD/svg11.dtd">
<svg version="1.1" id="Layer_1" xmlns="http://www.w3.org/2000/svg" xmlns:xlink="http://www.w3.org/1999/xlink" x="0px" y="0px"
	 width="190px" height="70px" viewBox="0 0 190 70" enable-background="new 0 0 190 70" xml:space="preserve">
<g>
	<path fill="#FFFFFF" d="M75.797,36.322l1.742-6.193l1.741,6.193H75.797z M78.863,25.421h-2.649h-1.489L68.68,43.854h4.999
		l1.979-7.035l0.891,3.398h3.828l1.022,3.637h4.999l-6.046-18.434H78.863z"/>
	<path fill="#FFFFFF" d="M160.927,36.322l1.741-6.193l1.742,6.193H160.927z M163.993,25.421h-2.649h-1.488l-6.046,18.434h4.999
		l1.979-7.035l0.891,3.398h3.828l1.022,3.637h4.999l-6.046-18.434H163.993z"/>
	<g>
		<path fill="#FFFFFF" d="M97.124,38.179c0,0.817-0.662,1.479-1.48,1.479h-2.372c-0.817,0-1.48-0.662-1.48-1.479v-7.078
			c0-0.817,0.663-1.479,1.48-1.479h2.372c0.818,0,1.48,0.662,1.48,1.479V38.179z M97.012,25.426h-5.107
			c-2.779,0-5.032,2.252-5.032,5.032v8.363c0,2.779,2.253,5.032,5.032,5.032h5.107c2.779,0,5.031-2.253,5.031-5.032v-2.055v-6.308
			C102.043,27.679,99.791,25.426,97.012,25.426"/>
		<path fill="#FFFFFF" d="M112.991,38.179v-12.76h-4.919v13.402c0,2.779,2.252,5.032,5.031,5.032h8.5v-4.194h-7.132
			C113.653,39.659,112.991,38.996,112.991,38.179"/>
		<path fill="#FFFFFF" d="M146.744,29.621h4.54l1.979-4.195h-7.887c-2.779,0-5.032,2.253-5.032,5.032v8.363
			c0,2.779,2.253,5.032,5.032,5.032h7.324v-4.194h-5.957c-0.817,0-1.48-0.663-1.48-1.48v-7.078
			C145.264,30.284,145.927,29.621,146.744,29.621"/>
		<path fill="#FFFFFF" d="M64.925,33.545l-3.945-1.623c-0.473-0.194-0.781-0.655-0.781-1.166c0-0.676,0.548-1.225,1.224-1.225h4.67
			l1.316-4.111h-7.432c-2.818,0-5.104,2.285-5.104,5.104v0.313c0,2.144,1.294,4.075,3.277,4.889l3.945,1.624
			c0.472,0.193,0.781,0.654,0.781,1.165c0,0.677-0.548,1.225-1.224,1.225h-5.597v4.111h7.042c2.819,0,5.104-2.285,5.104-5.104
			v-0.313C68.202,36.291,66.907,34.36,64.925,33.545"/>
		<path fill="#FFFFFF" d="M181.658,33.545l-3.945-1.623c-0.473-0.194-0.781-0.655-0.781-1.166c0-0.676,0.548-1.225,1.225-1.225
			h4.671l1.315-4.111h-7.432c-2.818,0-5.104,2.285-5.104,5.104v0.313c0,2.144,1.294,4.075,3.276,4.889l3.945,1.624
			c0.473,0.193,0.781,0.654,0.781,1.165c0,0.677-0.548,1.225-1.224,1.225h-5.597v4.111h7.042c2.818,0,5.104-2.285,5.104-5.104
			v-0.313C184.935,36.291,183.64,34.36,181.658,33.545"/>
		<path fill="#FFFFFF" d="M75.792,23.038c0.75,0,2.973,1.158,3.776,1.158c0.859,0,1.551-0.263,2.074-0.79
			c0.479-0.482,0.895-1.088,1.252-1.808l-2.174-1.267c-0.019,0.031-0.451,0.694-0.646,0.826c-0.195,0.131-0.406,0.197-0.633,0.197
			c-0.316,0-0.622-0.061-0.919-0.184c-0.297-0.123-1.901-1-2.804-1c-0.842,0-1.538,0.246-2.085,0.736
			c-0.52,0.464-0.951,1.027-1.3,1.68l2.159,1.259C74.846,23.309,75.278,23.038,75.792,23.038"/>
		<path fill="#FFFFFF" d="M133.1,39.658h-3.719c-0.816,0-1.479-0.662-1.479-1.479v-12.75h-4.92v13.392
			c0,2.779,2.253,5.032,5.032,5.032l10.005,0.001V25.419H133.1V39.658z"/>
	</g>
	<g>
		<path fill="#FFFFFF" d="M24.734,28.352l12.14-7.311l0.79,0.459l-12.923,7.782L24.734,28.352z M24.719,26.196v-0.422l9.976-5.999
			l0.79,0.459l-10.762,6.47L24.719,26.196z M24.719,23.184l7.792-4.677l0.791,0.459l-8.583,5.151V23.184z M24.719,20.596
			l5.605-3.359l0.791,0.458l-6.396,3.834V20.596z M24.719,18.008l3.415-2.043l0.791,0.459l-4.206,2.518V18.008z M24.719,15.42
			l1.222-0.73l0.791,0.459l-2.013,1.203V15.42z M39.086,5l-14.373,8.802L24.708,13.8v0.006L4.661,26.083H4.66v0.001l0.001,1.548
			l1.286-0.788l0.781,0.461l-2.067,1.263v1.633l3.427-2.093l0.781,0.46l-4.208,2.568v1.632l5.571-3.396l0.781,0.461l-6.353,3.873
			v1.631l7.719-4.697l0.78,0.461l-8.5,5.171v1.634l9.87-5.997l0.781,0.461L4.661,38.847v1.632l12.024-7.295l0.782,0.461
			L4.661,41.415v1.633l14.213-8.572l0.05-0.03h-0.001l5.829-3.516l10.256-6.186l-0.016,0.011l3.774-2.278l0.317-0.191l0.003-0.001
			l0-0.279V5z"/>
		<polygon fill="#FFFFFF" points="4.796,43.899 6.164,44.707 21.057,35.698 19.673,34.887 		"/>
		<polygon fill="#FFFFFF" points="21.842,36.158 6.946,45.169 8.316,45.978 23.228,36.972 		"/>
		<polygon fill="#FFFFFF" points="24.014,37.432 9.099,46.44 10.472,47.251 25.402,38.246 		"/>
		<path fill="#FFFFFF" d="M23.491,54.919l2.117-1.265v0.932l-1.333,0.796L23.491,54.919z M21.314,53.635l4.293-2.569v0.933
			l-3.508,2.1L21.314,53.635z M19.142,52.353l6.465-3.876v0.934l-5.681,3.405L19.142,52.353z M16.973,51.072l8.634-5.184v0.932
			l-7.851,4.715L16.973,51.072z M14.808,49.794l10.8-6.495v0.934L15.59,50.257L14.808,49.794z M12.645,48.517l12.963-7.806v0.934
			l-12.18,7.335L12.645,48.517z M35.264,33.233l0.044-0.027l-23.35,14.083l-0.704,0.425l-0.002,0.001l-0.003,0.827V65h0.001
			l14.374-8.804L25.63,56.2v-0.006l20.048-12.279l0,0.001v-0.115l0-1.434l-1.203,0.735l-0.787-0.457l1.988-1.216l0.001-1.632
			l-3.36,2.051l-0.788-0.457l4.147-2.53l0.001-1.634l-5.522,3.367l-0.787-0.458l6.308-3.846l0.001-1.63l-7.686,4.676l-0.788-0.457
			l8.473-5.157v-1.632l-9.854,5.987l-0.787-0.458l10.641-6.467v-1.632l-12.024,7.295l-0.788-0.457l12.813-7.774v-1.633
			L35.264,33.233z"/>
		<polygon fill="#FFFFFF" points="29.281,34.301 30.664,35.112 45.542,26.099 44.174,25.292 		"/>
		<polygon fill="#FFFFFF" points="28.496,33.84 43.393,24.83 42.022,24.021 27.11,33.028 		"/>
		<polygon fill="#FFFFFF" points="26.325,32.567 41.24,23.559 39.866,22.749 24.936,31.753 		"/>
	</g>
	<g>
		<polygon fill="#FFFFFF" points="54.973,56.302 59.278,56.302 59.278,55.823 55.511,55.823 55.511,52.964 58.72,52.964 
			58.72,52.485 55.511,52.485 55.511,49.685 59.278,49.685 59.278,49.207 54.973,49.207 		"/>
		<path fill="#FFFFFF" d="M72.227,51.165c-0.043-0.243-0.111-0.478-0.204-0.703s-0.229-0.428-0.409-0.607
			c-0.432-0.432-1.023-0.647-1.773-0.647h-2.382v7.095h2.382c0.372,0,0.708-0.056,1.006-0.165s0.555-0.271,0.767-0.483
			c0.18-0.179,0.315-0.392,0.409-0.637c0.093-0.246,0.161-0.504,0.204-0.772c0.043-0.27,0.066-0.542,0.07-0.817
			s0.005-0.533,0.005-0.772s-0.001-0.486-0.005-0.742S72.27,51.407,72.227,51.165z M71.758,53.317
			c-0.003,0.242-0.02,0.484-0.05,0.727c-0.03,0.243-0.082,0.473-0.154,0.688c-0.073,0.216-0.179,0.396-0.319,0.543
			c-0.206,0.213-0.44,0.356-0.702,0.434c-0.263,0.076-0.537,0.114-0.822,0.114h-1.714v-6.139h1.714c0.286,0,0.56,0.039,0.822,0.115
			c0.262,0.076,0.497,0.221,0.702,0.434c0.14,0.146,0.246,0.317,0.319,0.513c0.073,0.196,0.125,0.402,0.154,0.618
			s0.046,0.435,0.05,0.657s0.005,0.434,0.005,0.633S71.762,53.074,71.758,53.317z"/>
		<path fill="#FFFFFF" d="M84.966,53.93c0,0.293-0.044,0.56-0.134,0.803c-0.089,0.242-0.218,0.448-0.384,0.617
			c-0.166,0.17-0.365,0.301-0.598,0.394c-0.232,0.094-0.492,0.14-0.777,0.14s-0.544-0.046-0.777-0.14
			c-0.232-0.093-0.432-0.224-0.598-0.394c-0.166-0.169-0.294-0.375-0.384-0.617c-0.089-0.243-0.134-0.51-0.134-0.803v-4.723h-0.538
			v4.792c0,0.347,0.06,0.663,0.179,0.952s0.288,0.538,0.503,0.747c0.216,0.21,0.471,0.372,0.767,0.488
			c0.295,0.116,0.623,0.175,0.981,0.175s0.686-0.059,0.981-0.175c0.296-0.116,0.552-0.278,0.768-0.488
			c0.216-0.209,0.383-0.458,0.503-0.747s0.18-0.605,0.18-0.952v-4.792h-0.539V53.93z"/>
		<path fill="#FFFFFF" d="M94.468,51.085c0.037-0.196,0.091-0.365,0.165-0.508c0.073-0.144,0.173-0.277,0.299-0.404
			c0.18-0.179,0.385-0.315,0.618-0.408s0.475-0.14,0.728-0.14c0.478,0,0.881,0.144,1.21,0.429c0.328,0.285,0.546,0.674,0.652,1.166
			h0.548c-0.06-0.319-0.159-0.606-0.299-0.862s-0.313-0.473-0.518-0.652c-0.206-0.18-0.444-0.317-0.713-0.414
			c-0.269-0.096-0.563-0.145-0.881-0.145c-0.339,0-0.661,0.063-0.967,0.189s-0.575,0.306-0.807,0.538
			c-0.16,0.16-0.284,0.326-0.374,0.498c-0.089,0.173-0.156,0.369-0.199,0.588c-0.043,0.22-0.068,0.474-0.075,0.763
			s-0.01,0.633-0.01,1.031s0.003,0.744,0.01,1.036c0.007,0.293,0.031,0.549,0.075,0.768c0.043,0.22,0.11,0.414,0.199,0.583
			c0.09,0.169,0.214,0.334,0.374,0.493c0.232,0.232,0.501,0.412,0.807,0.538s0.627,0.189,0.967,0.189
			c0.312,0,0.603-0.048,0.872-0.145c0.269-0.096,0.508-0.234,0.717-0.413c0.21-0.18,0.384-0.397,0.523-0.653
			s0.239-0.543,0.299-0.862h-0.528c-0.105,0.492-0.326,0.881-0.662,1.166c-0.335,0.286-0.742,0.429-1.22,0.429
			c-0.253,0-0.496-0.046-0.728-0.14c-0.232-0.093-0.438-0.229-0.618-0.408c-0.126-0.126-0.226-0.261-0.299-0.403
			c-0.073-0.144-0.128-0.313-0.165-0.509c-0.037-0.195-0.06-0.429-0.07-0.697c-0.01-0.27-0.015-0.593-0.015-0.972
			s0.005-0.702,0.015-0.972C94.408,51.514,94.431,51.281,94.468,51.085z"/>
		<path fill="#FFFFFF" d="M108.633,49.207l-2.611,7.095h0.578l0.618-1.724h3.308l0.618,1.724h0.578l-2.61-7.095H108.633z
			 M107.387,54.1l1.485-4.176l1.484,4.176H107.387z"/>
		<path fill="#FFFFFF" d="M119.738,51.085c0.036-0.196,0.091-0.365,0.164-0.508c0.073-0.144,0.173-0.277,0.3-0.404
			c0.179-0.179,0.385-0.315,0.617-0.408s0.475-0.14,0.728-0.14c0.479,0,0.882,0.144,1.211,0.429s0.546,0.674,0.652,1.166h0.548
			c-0.06-0.319-0.159-0.606-0.299-0.862c-0.139-0.256-0.313-0.473-0.519-0.652c-0.205-0.18-0.442-0.317-0.712-0.414
			c-0.269-0.096-0.563-0.145-0.882-0.145c-0.339,0-0.661,0.063-0.967,0.189s-0.574,0.306-0.807,0.538
			c-0.16,0.16-0.284,0.326-0.374,0.498c-0.09,0.173-0.156,0.369-0.199,0.588c-0.044,0.22-0.068,0.474-0.075,0.763
			c-0.006,0.289-0.01,0.633-0.01,1.031s0.004,0.744,0.01,1.036c0.007,0.293,0.031,0.549,0.075,0.768
			c0.043,0.22,0.109,0.414,0.199,0.583s0.214,0.334,0.374,0.493c0.232,0.232,0.501,0.412,0.807,0.538s0.628,0.189,0.967,0.189
			c0.313,0,0.603-0.048,0.872-0.145c0.27-0.096,0.508-0.234,0.717-0.413c0.21-0.18,0.385-0.397,0.523-0.653
			c0.14-0.256,0.239-0.543,0.299-0.862h-0.527c-0.106,0.492-0.328,0.881-0.663,1.166c-0.336,0.286-0.742,0.429-1.221,0.429
			c-0.253,0-0.495-0.046-0.728-0.14c-0.232-0.093-0.438-0.229-0.617-0.408c-0.127-0.126-0.227-0.261-0.3-0.403
			c-0.073-0.144-0.128-0.313-0.164-0.509c-0.036-0.195-0.06-0.429-0.069-0.697c-0.011-0.27-0.016-0.593-0.016-0.972
			s0.005-0.702,0.016-0.972C119.679,51.514,119.702,51.281,119.738,51.085z"/>
		<rect x="132.339" y="49.207" fill="#FFFFFF" width="0.538" height="7.095"/>
		<path fill="#FFFFFF" d="M146.095,50.96c-0.043-0.219-0.109-0.415-0.199-0.588c-0.09-0.172-0.215-0.338-0.374-0.498
			c-0.232-0.232-0.502-0.412-0.807-0.538c-0.306-0.126-0.628-0.189-0.967-0.189s-0.661,0.063-0.967,0.189s-0.575,0.306-0.808,0.538
			c-0.159,0.16-0.283,0.326-0.373,0.498c-0.09,0.173-0.156,0.369-0.199,0.588c-0.044,0.22-0.068,0.474-0.075,0.763
			c-0.006,0.289-0.01,0.633-0.01,1.031s0.004,0.744,0.01,1.036c0.007,0.293,0.031,0.549,0.075,0.768
			c0.043,0.22,0.109,0.414,0.199,0.583s0.214,0.334,0.373,0.493c0.232,0.232,0.502,0.412,0.808,0.538s0.628,0.189,0.967,0.189
			s0.661-0.063,0.967-0.189c0.305-0.126,0.574-0.306,0.807-0.538c0.159-0.159,0.284-0.324,0.374-0.493s0.156-0.363,0.199-0.583
			c0.043-0.219,0.068-0.475,0.074-0.768c0.007-0.292,0.01-0.638,0.01-1.036s-0.003-0.742-0.01-1.031
			C146.163,51.434,146.138,51.18,146.095,50.96z M145.627,53.726c-0.011,0.269-0.034,0.502-0.07,0.697
			c-0.037,0.196-0.092,0.365-0.165,0.509c-0.072,0.143-0.172,0.277-0.299,0.403c-0.179,0.18-0.385,0.315-0.617,0.408
			c-0.233,0.094-0.476,0.14-0.728,0.14c-0.253,0-0.495-0.046-0.728-0.14c-0.232-0.093-0.438-0.229-0.618-0.408
			c-0.126-0.126-0.226-0.261-0.299-0.403c-0.073-0.144-0.128-0.313-0.164-0.509c-0.037-0.195-0.06-0.429-0.069-0.697
			c-0.011-0.27-0.016-0.593-0.016-0.972s0.005-0.702,0.016-0.972c0.01-0.269,0.032-0.501,0.069-0.697
			c0.036-0.196,0.091-0.365,0.164-0.508c0.073-0.144,0.173-0.277,0.299-0.404c0.18-0.179,0.386-0.315,0.618-0.408
			s0.475-0.14,0.728-0.14c0.252,0,0.494,0.047,0.728,0.14c0.232,0.093,0.438,0.229,0.617,0.408c0.127,0.127,0.227,0.261,0.299,0.404
			c0.073,0.143,0.128,0.312,0.165,0.508c0.036,0.196,0.06,0.429,0.07,0.697c0.009,0.27,0.014,0.593,0.014,0.972
			S145.636,53.456,145.627,53.726z"/>
		<polygon fill="#FFFFFF" points="159.253,55.354 155.157,49.207 154.619,49.207 154.619,56.302 155.157,56.302 155.157,50.133 
			159.253,56.302 159.791,56.302 159.791,49.207 159.253,49.207 		"/>
		<path fill="#FFFFFF" d="M170.174,49.207l-2.61,7.095h0.577l0.618-1.724h3.309l0.617,1.724h0.578l-2.61-7.095H170.174z
			 M168.929,54.1l1.484-4.176l1.484,4.176H168.929z"/>
		<polygon fill="#FFFFFF" points="181.574,55.823 181.574,49.207 181.035,49.207 181.035,56.302 185.341,56.302 185.341,55.823 		
			"/>
	</g>
</g>
</svg>
